…
Even after zooming into areas of interest, cutting down the range each
time, we see that the reviews per app is heavily right-skewed. We
attempt to address this skewness by log transforming our response
variable, so we can create a regression model.

Before fitting our regression model, we need to remove all NA and NaN
values from our dataset.

    ## # A tibble: 6,776 x 13
    ## # Groups:   App [6,699]
    ##    App   Category Rating  Size Installs Type  Price Content_Rating Genres
    ##    <chr> <chr>     <dbl> <dbl> <chr>    <chr> <dbl> <chr>          <chr> 
    ##  1 Phot… ART_AND…    4.1  19   10,000+  Free      0 Everyone       Art &…
    ##  2 Colo… ART_AND…    3.9  14   500,000+ Free      0 Everyone       Art &…
    ##  3 U La… ART_AND…    4.7   8.7 5,000,0… Free      0 Everyone       Art &…
    ##  4 Pixe… ART_AND…    4.3   2.8 100,000+ Free      0 Everyone       Art &…
    ##  5 Pape… ART_AND…    4.4   5.6 50,000+  Free      0 Everyone       Art &…
    ##  6 Smok… ART_AND…    3.8  19   50,000+  Free      0 Everyone       Art &…
    ##  7 Infi… ART_AND…    4.1  29   1,000,0… Free      0 Everyone       Art &…
    ##  8 Gard… ART_AND…    4.4  33   1,000,0… Free      0 Everyone       Art &…
    ##  9 Kids… ART_AND…    4.7   3.1 10,000+  Free      0 Everyone       Art &…
    ## 10 Text… ART_AND…    4.4  28   1,000,0… Free      0 Everyone       Art &…
    ## # … with 6,766 more rows, and 4 more variables: Last_Updated <chr>,
    ## #   Current_ver <chr>, Android_ver <chr>, Reviews_avg <dbl>

We now use our new dataset, absent NA values, to fit a linear model.

We try to predict log(Reviews) by variables: Category, Size, Type,
Price, Content\_Rating, and an interaction between type and price. We
chose to leave out Rating and Installs because they are more appropriate
as different response variables. We also leave out Genres because of
collinearity (it is very similar to Categories). Lastly, we chose to
leave out Current\_ver because it is dependent on each app and thus
arbitrary.

Our full model is as follows:

    ## # A tibble: 41 x 2
    ##    term                        estimate
    ##    <chr>                          <dbl>
    ##  1 (Intercept)                  420.   
    ##  2 CategoryAUTO_AND_VEHICLES      0.392
    ##  3 CategoryBEAUTY                 0.385
    ##  4 CategoryBOOKS_AND_REFERENCE    0.818
    ##  5 CategoryBUSINESS               0.245
    ##  6 CategoryCOMICS                 0.896
    ##  7 CategoryCOMMUNICATION          2.90 
    ##  8 CategoryDATING                 0.434
    ##  9 CategoryEDUCATION              9.20 
    ## 10 CategoryENTERTAINMENT         16.6  
    ## # … with 31 more rows
…
As we can see above, the selected model removes the price variable only,
and it has the lowest AIC. We can now look again at the R-squared value:

    ## [1] 0.2264017

Our selected model also has a comparable R-squared to our initial model
(22.6% versus 22.7%).

#### Interpretation of Final Model

Our final model is seen below:

    ## # A tibble: 40 x 2
    ##    term                        estimate
    ##    <chr>                          <dbl>
    ##  1 (Intercept)                  419.   
    ##  2 CategoryAUTO_AND_VEHICLES      0.393
    ##  3 CategoryBEAUTY                 0.386
    ##  4 CategoryBOOKS_AND_REFERENCE    0.819
    ##  5 CategoryBUSINESS               0.245
    ##  6 CategoryCOMICS                 0.898
    ##  7 CategoryCOMMUNICATION          2.89 
    ##  8 CategoryDATING                 0.435
    ##  9 CategoryEDUCATION              9.21 
    ## 10 CategoryENTERTAINMENT         16.7  
    ## # … with 30 more rows
…
